Lab 4: Avocado Prices
…
Cleaning the dataset

# renaming columns
avocado <- avocado |>
  rename("tot_small" = "4046",
         "tot_large" = "4225",
         "tot_ext_large" = "4770")

# Checking List of regions
check_regions<- distinct(avocado,
                         region)
check_regions

# A tibble: 54 × 1
   region             
   <chr>              
 1 Albany             
 2 Atlanta            
 3 BaltimoreWashington
 4 Boise              
 5 Boston             
 6 BuffaloRochester   
 7 California         
 8 Charlotte          
 9 Chicago            
10 CincinnatiDayton   
# … with 44 more rows
…
