Lab 3: Hip-Hop
…
The most familiar word for non-white women is “what it do”, while the least familiar words are “break someone out”, “dollar cab”, “domino”, “dukey rope”, “humming”, “plex”, “rollie”, and “The Nation”.

# Most and Least Familiar Words with white men over 30
familiar_by_men <- ethnic_clean |>
  filter(ethnic == "white",
         sex == "Male",
         age > 30) |>
  group_by(word) |>
  summarize(MEAN_FAMILIARITY = mean(familiarity))

# Least familiar
slice_min(familiar_by_men, MEAN_FAMILIARITY, n = 1)

# A tibble: 59 × 2
   word              MEAN_FAMILIARITY
   <fct>                        <dbl>
 1 [to be] ghost                    1
 2 A-town                           1
 3 ashy                             1
 4 ay yo trip                       1
 5 ballin'                          1
 6 beezy                            1
 7 bones                            1
 8 boo                              1
 9 boughie                          1
10 break someone out                1
# … with 49 more rows
…
The least familiar words for white men over the age of 30 are “[to be] ghost”, “A-town”, “ashy”, “ay yo trip”, “ballin’”, “beezy”, “bones”, “boo”, “boughie”, “break someone out”, and the most familiar words are “5-0”, “hard”, and “make it rain”.

Study Subjects

justin_bieber <- ethnic_clean |>
  filter(ethnic == "white",
         sex == "Male",
         city >= 10000 & city <= 60000,
         age >= 17 & age <= 23) |>
  slice_max(bieber,
            n = 1)

justin_bieber

# A tibble: 64 × 38
   word    subj  sex     age ethnic  city county  intl vocal class…¹  folk  rock
   <fct>   <fct> <fct> <dbl> <chr>  <dbl>  <dbl> <dbl> <dbl>   <dbl> <dbl> <dbl>
 1 [to be… p17   Male     18 white  56377 331582     0     1       0     0     1
 2 5-0     p17   Male     18 white  56377 331582     0     1       0     0     1
 3 A-town  p17   Male     18 white  56377 331582     0     1       0     0     1
 4 ashy    p17   Male     18 white  56377 331582     0     1       0     0     1
 5 ay yo … p17   Male     18 white  56377 331582     0     1       0     0     1
 6 ballin' p17   Male     18 white  56377 331582     0     1       0     0     1
 7 beezy   p17   Male     18 white  56377 331582     0     1       0     0     1
 8 bones   p17   Male     18 white  56377 331582     0     1       0     0     1
 9 boo     p17   Male     18 white  56377 331582     0     1       0     0     1
10 boughie p17   Male     18 white  56377 331582     0     1       0     0     1
# … with 54 more rows, 26 more variables: country <dbl>, pop <dbl>,
#   alternative <dbl>, hiphop <dbl>, unclassifiable <dbl>, countyBlack <dbl>,
#   jayz <dbl>, barkley <dbl>, boondocks <dbl>, monique <dbl>, bieber <dbl>,
#   asianMove <dbl>, blackMove <dbl>, hispanicMove <dbl>, nativeMove <dbl>,
#   SAAMEMove <dbl>, whiteMove <dbl>, blackWeekly <dbl>, jayz1 <dbl>,
#   boondocks1 <dbl>, familiarity <dbl>, trial <dbl>, fam1 <dbl>,
#   popularityScore <dbl>, numPreferredArtists <dbl>, …
…
